{
	"code": 0,
	"msg": "提交成功！",
	"data": {
		"page": 1,
		"page_size": 20,
		"count": 43,
		"page_count": 3,
		"list": [
			{
				"product_id": 26,
				"product_name": "裙子好看的裙子可爱的裙子啊啊",
				"product_icon": "../img/erzhui.jpg",
				"product_short_description": null,
				"product_max_price": 3602.00,
				"product_min_price": 3600.00,
				"product_pageage_unit": "件",
				"product_s_intergral": 34.00,
				"product_type": 0,
				"product_number": "B00002",
				"product_category_name": "服装",
				"product_stock": 2998,
				"product_status": 0,
				"product_sort": 0,
				"product_date": "2018-01-30 17:10:21"
			}, {
				"product_id": 27,
				"product_name": "洗面奶美白祛斑祛痘补水锁水洗面乳",
				"product_icon": "../img/erzhui.jpg",
				"product_short_description": null,
				"product_max_price": 2016.55,
				"product_min_price": 2013.55,
				"product_pageage_unit": "支",
				"product_s_intergral": 0.00,
				"product_type": 0,
				"product_number": "B00003",
				"product_category_name": "个护化妆",
				"product_stock": 3940,
				"product_status": 0,
				"product_sort": 0,
				"product_date": "2018-01-30 15:55:55"
			}, {
				"product_id": 28,
				"product_name": "鞋子好看的鞋子耐磨耐摔耐跑耐穿",
				"product_icon": "../img/erzhui.jpg",
				"product_short_description": null,
				"product_max_price": 5989.00,
				"product_min_price": 5989.00,
				"product_pageage_unit": "双",
				"product_s_intergral": 5989.00,
				"product_type": 0,
				"product_number": "B00004",
				"product_category_name": "鞋镜箱包",
				"product_stock": 4978,
				"product_status": 0,
				"product_sort": 0,
				"product_date": "2018-01-30 14:02:06"
			}, {
				"product_id": 29,
				"product_name": "连衣裙女童裙子好看的裙子",
				"product_icon": "../img/erzhui.jpg",
				"product_short_description": null,
				"product_max_price": 6899.00,
				"product_min_price": 6899.00,
				"product_pageage_unit": "套",
				"product_s_intergral": 6899.00,
				"product_type": 0,
				"product_number": "B00005",
				"product_category_name": "服装",
				"product_stock": 2989,
				"product_status": 0,
				"product_sort": 0,
				"product_date": "2018-01-30 14:32:58"
			},  {
				"product_id": 41,
				"product_name": "零食1坚果好吃的坚果",
				"product_icon": "../img/erzhui.jpg",
				"product_short_description": "500g一包",
				"product_max_price": 4320.00,
				"product_min_price": 4320.00,
				"product_pageage_unit": "包",
				"product_s_intergral": 4320.00,
				"product_type": 0,
				"product_number": "C00001",
				"product_category_name": "",
				"product_stock": 1000,
				"product_status": 0,
				"product_sort": 0,
				"product_date": "2018-01-20 16:31:01"
			}, {
				"product_id": 51,
				"product_name": "儿童手套可爱的手套保暖手套",
				"product_icon": "../img/erzhui.jpg",
				"product_short_description": null,
				"product_max_price": 3540.00,
				"product_min_price": 3540.00,
				"product_pageage_unit": "双",
				"product_s_intergral": 3540.00,
				"product_type": 1,
				"product_number": "C00009",
				"product_category_name": "儿童用品",
				"product_stock": 5977,
				"product_status": 0,
				"product_sort": 0,
				"product_date": "2018-01-31 16:40:20"
			}, {
				"product_id": 52,
				"product_name": "耳坠银好看的耳坠爆款",
				"product_icon": "../img/erzhui.jpg",
				"product_short_description": "200452004520045",
				"product_max_price": 50045.00,
				"product_min_price": 20045.00,
				"product_pageage_unit": "对",
				"product_s_intergral": 0.00,
				"product_type": 0,
				"product_number": "C00009",
				"product_category_name": "项链",
				"product_stock": 3000,
				"product_status": 0,
				"product_sort": 0,
				"product_date": "2018-01-30 14:06:14"
			}, {
				"product_id": 53,
				"product_name": "好吃的零食2坚果松果坚果松果",
				"product_icon": "../img/erzhui.jpg",
				"product_short_description": "500g一盒10包、250g一盒5包",
				"product_max_price": 2018.00,
				"product_min_price": 2018.00,
				"product_pageage_unit": "包",
				"product_s_intergral": 2018.00,
				"product_type": 1,
				"product_number": "B00015",
				"product_category_name": "零食",
				"product_stock": 10999,
				"product_status": 0,
				"product_sort": 0,
				"product_date": "2018-01-30 14:06:50"
			}, {
				"product_id": 55,
				"product_name": "家居服睡衣舒适休闲服",
				"product_icon": "../img/erzhui.jpg",
				"product_short_description": "M / L / XL",
				"product_max_price": 3520.00,
				"product_min_price": 3520.00,
				"product_pageage_unit": "件",
				"product_s_intergral": 3520.00,
				"product_type": 1,
				"product_number": "B00016",
				"product_category_name": "家居用品",
				"product_stock": 2821,
				"product_status": 0,
				"product_sort": 0,
				"product_date": "2018-01-31 16:31:42"
			}, {
				"product_id": 56,
				"product_name": "收纳箱储存箱箱子收纳收纳盒",
				"product_icon": "../img/erzhui.jpg",
				"product_short_description": null,
				"product_max_price": 6520.00,
				"product_min_price": 6520.00,
				"product_pageage_unit": "个",
				"product_s_intergral": 6520.00,
				"product_type": 0,
				"product_number": "B00017",
				"product_category_name": "鞋镜箱包",
				"product_stock": 999,
				"product_status": 0,
				"product_sort": 0,
				"product_date": "2018-01-29 16:22:47"
			}
		]
	}
}